2 Visualizing Data – Applied Statistics
…
The following objects are masked from 'package:base':

    intersect, setdiff, setequal, union

calc.props <- diamonds %>% group_by(color, cut) %>%
              summarise(count=n()) %>%
              mutate(pct=round(count/sum(count),3))

`summarise()` has grouped output by 'color'. You can override using the
`.groups` argument.

calc.props

# A tibble: 35 × 4
# Groups:   color [7]
   color cut       count   pct
   <ord> <ord>     <int> <dbl>
 1 D     Fair        163 0.024
 2 D     Good        662 0.098
 3 D     Very Good  1513 0.223
 4 D     Premium    1603 0.237
 5 D     Ideal      2834 0.418
 6 E     Fair        224 0.023
 7 E     Good        933 0.095
 8 E     Very Good  2400 0.245
 9 E     Premium    2337 0.239
10 E     Ideal      3903 0.398
# ℹ 25 more rows
…
